                   Speed  147    3.00   20.00    6.65 
   CriticalChancePercent  116    0.64    6.20    2.10 
          PotencyPercent  123    0.52    5.71    1.99 
         TenacityPercent  111    0.50    6.23    2.15 
                 Offense  124   12.00  123.00   45.77 
                 Defense  117    2.00   29.00    8.75 
                  Health  126  113.00 1159.00  389.25 
              Protection  137  116.00 2368.00  761.01 
          OffensePercent  100    0.17    1.49    0.54 
          DefensePercent  100    0.75    3.58    1.50 
           HealthPercent  120    0.38    3.13    1.02 
       ProtectionPercent   96    0.75    6.79    2.27 
